module github.com/spiffe/spire

go 1.18

require (
	cloud.google.com/go/secretmanager v1.4.0
	cloud.google.com/go/security v1.3.0
	cloud.google.com/go/storage v1.22.0
	github.com/Azure/azure-sdk-for-go/sdk/azcore v0.22.0
	github.com/Azure/azure-sdk-for-go/sdk/azidentity v0.13.2
	github.com/Azure/azure-sdk-for-go/sdk/resourcemanager/compute/armcompute v0.5.0
	github.com/Azure/azure-sdk-for-go/sdk/resourcemanager/network/armnetwork v0.3.1
	github.com/Azure/azure-sdk-for-go/sdk/resourcemanager/resources/armresources v0.3.1
	github.com/GoogleCloudPlatform/cloudsql-proxy v1.30.0
	github.com/InVisionApp/go-health/v2 v2.1.2
	github.com/InVisionApp/go-logger v1.0.1
	github.com/Microsoft/go-winio v0.5.2
	github.com/andres-erbsen/clock v0.0.0-20160526145045-9e14626cd129
	github.com/armon/go-metrics v0.3.10
	github.com/aws/aws-sdk-go v1.43.0
	github.com/aws/aws-sdk-go-v2 v1.16.2
	github.com/aws/aws-sdk-go-v2/config v1.15.3
	github.com/aws/aws-sdk-go-v2/credentials v1.11.2
	github.com/aws/aws-sdk-go-v2/service/kms v1.17.0
	github.com/aws/aws-sdk-go-v2/service/secretsmanager v1.15.5
	github.com/aws/aws-sdk-go-v2/service/sts v1.16.3
	github.com/blang/semver/v4 v4.0.0
	github.com/cenkalti/backoff/v3 v3.2.2
	github.com/docker/docker v20.10.14+incompatible
	github.com/envoyproxy/go-control-plane v0.10.1
	github.com/go-logr/logr v1.2.3
	github.com/go-sql-driver/mysql v1.6.0
	github.com/gofrs/uuid v4.2.0+incompatible
	github.com/golang/mock v1.6.0
	github.com/golang/protobuf v1.5.2
	github.com/google/go-cmp v0.5.7
	github.com/google/go-tpm v0.3.3
	github.com/google/go-tpm-tools v0.3.7
	github.com/googleapis/gax-go/v2 v2.3.0
	github.com/gorilla/handlers v1.5.1
	github.com/hashicorp/go-hclog v1.2.0
	github.com/hashicorp/go-plugin v1.4.3
	github.com/hashicorp/golang-lru v0.5.4
	github.com/hashicorp/hcl v1.0.1-0.20190430135223-99e2f22d1c94
	github.com/hashicorp/vault/api v1.5.0
	github.com/hashicorp/vault/sdk v0.4.1
	github.com/imdario/mergo v0.3.12
	github.com/imkira/go-observer v1.0.3
	github.com/jinzhu/gorm v1.9.16
	github.com/lib/pq v1.10.5
	github.com/mattn/go-sqlite3 v1.14.12
	github.com/mitchellh/cli v1.1.3
	github.com/open-policy-agent/opa v0.39.0
	github.com/prometheus/client_golang v1.12.1
	github.com/shirou/gopsutil/v3 v3.22.3
	github.com/sirupsen/logrus v1.8.1
	github.com/spiffe/go-spiffe/v2 v2.0.1-0.20220414143532-2ed460a8b9d3
	github.com/spiffe/spire-api-sdk v1.2.2-0.20220317172821-e2705b35aa09
	github.com/spiffe/spire-plugin-sdk v1.2.1
	github.com/stretchr/testify v1.7.1
	github.com/uber-go/tally/v4 v4.1.1
	github.com/zeebo/errs v1.3.0
	go.uber.org/atomic v1.9.0
	golang.org/x/crypto v0.0.0-20211215153901-e495a2d5b3d3
	golang.org/x/net v0.0.0-20220412020605-290c469a71a5
	golang.org/x/sync v0.0.0-20210220032951-036812b2e83c
	golang.org/x/sys v0.0.0-20220412211240-33da011f77ad
	golang.org/x/time v0.0.0-20220224211638-0e9765cccd65
	google.golang.org/api v0.75.0
	google.golang.org/genproto v0.0.0-20220414192740-2d67ff6cf2b4
	google.golang.org/grpc v1.45.0
	google.golang.org/protobuf v1.28.0
	gopkg.in/square/go-jose.v2 v2.6.0
	k8s.io/api v0.23.6
	k8s.io/apimachinery v0.23.6
	k8s.io/client-go v0.23.6
	k8s.io/kube-aggregator v0.23.3
	k8s.io/utils v0.0.0-20211116205334-6203023598ed
	sigs.k8s.io/controller-runtime v0.11.2
)

require (
	cloud.google.com/go v0.100.2 // indirect
	cloud.google.com/go/compute v1.6.0 // indirect
	cloud.google.com/go/iam v0.3.0 // indirect
	github.com/Azure/azure-sdk-for-go/sdk/internal v0.9.1 // indirect
	github.com/Azure/go-autorest v14.2.0+incompatible // indirect
	github.com/Azure/go-autorest/autorest v0.11.18 // indirect
	github.com/Azure/go-autorest/autorest/adal v0.9.18 // indirect
	github.com/Azure/go-autorest/autorest/date v0.3.0 // indirect
	github.com/Azure/go-autorest/logger v0.2.1 // indirect
	github.com/Azure/go-autorest/tracing v0.6.0 // indirect
	github.com/AzureAD/microsoft-authentication-library-for-go v0.4.0 // indirect
	github.com/DataDog/datadog-go v3.2.0+incompatible // indirect
	github.com/Masterminds/goutils v1.1.0 // indirect
	github.com/Masterminds/semver/v3 v3.1.1 // indirect
	github.com/Masterminds/sprig/v3 v3.2.0 // indirect
	github.com/OneOfOne/xxhash v1.2.8 // indirect
	github.com/armon/go-radix v1.0.0 // indirect
	github.com/aws/aws-sdk-go-v2/feature/ec2/imds v1.12.3 // indirect
	github.com/aws/aws-sdk-go-v2/internal/configsources v1.1.9 // indirect
	github.com/aws/aws-sdk-go-v2/internal/endpoints/v2 v2.4.3 // indirect
	github.com/aws/aws-sdk-go-v2/internal/ini v1.3.10 // indirect
	github.com/aws/aws-sdk-go-v2/service/internal/presigned-url v1.9.3 // indirect
	github.com/aws/aws-sdk-go-v2/service/sso v1.11.3 // indirect
	github.com/aws/smithy-go v1.11.2 // indirect
	github.com/beorn7/perks v1.0.1 // indirect
	github.com/bgentry/speakeasy v0.1.0 // indirect
	github.com/cespare/xxhash/v2 v2.1.2 // indirect
	github.com/cncf/xds/go v0.0.0-20211130200136-a8f946100490 // indirect
	github.com/containerd/containerd v1.3.4 // indirect
	github.com/davecgh/go-spew v1.1.1 // indirect
	github.com/docker/distribution v2.7.1+incompatible // indirect
	github.com/docker/go-connections v0.4.0 // indirect
	github.com/docker/go-units v0.4.0 // indirect
	github.com/envoyproxy/protoc-gen-validate v0.6.2 // indirect
	github.com/evanphx/json-patch v4.12.0+incompatible // indirect
	github.com/fatih/color v1.13.0 // indirect
	github.com/felixge/httpsnoop v1.0.2 // indirect
	github.com/fsnotify/fsnotify v1.5.1 // indirect
	github.com/ghodss/yaml v1.0.0 // indirect
	github.com/go-logr/zapr v1.2.0 // indirect
	github.com/go-ole/go-ole v1.2.6 // indirect
	github.com/gobwas/glob v0.2.3 // indirect
	github.com/gogo/protobuf v1.3.2 // indirect
	github.com/golang-jwt/jwt v3.2.1+incompatible // indirect
	github.com/golang-jwt/jwt/v4 v4.2.0 // indirect
	github.com/golang/groupcache v0.0.0-20210331224755-41bb18bfe9da // indirect
	github.com/golang/snappy v0.0.4 // indirect
	github.com/google/gofuzz v1.1.0 // indirect
	github.com/google/uuid v1.1.2 // indirect
	github.com/googleapis/gnostic v0.5.5 // indirect
	github.com/googleapis/go-type-adapters v1.0.0 // indirect
	github.com/hashicorp/errwrap v1.1.0 // indirect
	github.com/hashicorp/go-cleanhttp v0.5.2 // indirect
	github.com/hashicorp/go-immutable-radix v1.3.1 // indirect
	github.com/hashicorp/go-multierror v1.1.1 // indirect
	github.com/hashicorp/go-retryablehttp v0.6.6 // indirect
	github.com/hashicorp/go-rootcerts v1.0.2 // indirect
	github.com/hashicorp/go-secure-stdlib/mlock v0.1.1 // indirect
	github.com/hashicorp/go-secure-stdlib/parseutil v0.1.1 // indirect
	github.com/hashicorp/go-secure-stdlib/strutil v0.1.1 // indirect
	github.com/hashicorp/go-sockaddr v1.0.2 // indirect
	github.com/hashicorp/go-uuid v1.0.2 // indirect
	github.com/hashicorp/go-version v1.2.0 // indirect
	github.com/hashicorp/yamux v0.0.0-20181012175058-2f1d1f20f75d // indirect
	github.com/huandu/xstrings v1.3.2 // indirect
	github.com/jhump/protoreflect v1.9.0 // indirect
	github.com/jinzhu/inflection v1.0.0 // indirect
	github.com/jmespath/go-jmespath v0.4.0 // indirect
	github.com/json-iterator/go v1.1.12 // indirect
	github.com/kylelemons/godebug v1.1.0 // indirect
	github.com/lufia/plan9stats v0.0.0-20211012122336-39d0f177ccd0 // indirect
	github.com/mattn/go-colorable v0.1.12 // indirect
	github.com/mattn/go-isatty v0.0.14 // indirect
	github.com/matttproud/golang_protobuf_extensions v1.0.2-0.20181231171920-c182affec369 // indirect
	github.com/mitchellh/copystructure v1.0.0 // indirect
	github.com/mitchellh/go-homedir v1.1.0 // indirect
	github.com/mitchellh/go-testing-interface v1.0.0 // indirect
	github.com/mitchellh/mapstructure v1.4.3 // indirect
	github.com/mitchellh/reflectwalk v1.0.1 // indirect
	github.com/moby/term v0.0.0-20210619224110-3f7ff695adc6 // indirect
	github.com/modern-go/concurrent v0.0.0-20180306012644-bacd9c7ef1dd // indirect
	github.com/modern-go/reflect2 v1.0.2 // indirect
	github.com/morikuni/aec v1.0.0 // indirect
	github.com/oklog/run v1.0.0 // indirect
	github.com/opencontainers/go-digest v1.0.0 // indirect
	github.com/opencontainers/image-spec v1.0.1 // indirect
	github.com/pierrec/lz4 v2.5.2+incompatible // indirect
	github.com/pkg/browser v0.0.0-20210115035449-ce105d075bb4 // indirect
	github.com/pkg/errors v0.9.1 // indirect
	github.com/pmezard/go-difflib v1.0.0 // indirect
	github.com/posener/complete v1.2.3 // indirect
	github.com/power-devops/perfstat v0.0.0-20210106213030-5aafc221ea8c // indirect
	github.com/prometheus/client_model v0.2.0 // indirect
	github.com/prometheus/common v0.32.1 // indirect
	github.com/prometheus/procfs v0.7.3 // indirect
	github.com/rcrowley/go-metrics v0.0.0-20201227073835-cf1acfcdf475 // indirect
	github.com/ryanuber/go-glob v1.0.0 // indirect
	github.com/shopspring/decimal v1.2.0 // indirect
	github.com/spf13/cast v1.3.1 // indirect
	github.com/spf13/pflag v1.0.5 // indirect
	github.com/tklauser/go-sysconf v0.3.10 // indirect
	github.com/tklauser/numcpus v0.4.0 // indirect
	github.com/twmb/murmur3 v1.1.6 // indirect
	github.com/xeipuuv/gojsonpointer v0.0.0-20190905194746-02993c407bfb // indirect
	github.com/xeipuuv/gojsonreference v0.0.0-20180127040603-bd5ef7bd5415 // indirect
	github.com/yashtewari/glob-intersection v0.1.0 // indirect
	github.com/yusufpapurcu/wmi v1.2.2 // indirect
	go.opencensus.io v0.23.0 // indirect
	go.uber.org/multierr v1.6.0 // indirect
	go.uber.org/zap v1.21.0 // indirect
	golang.org/x/oauth2 v0.0.0-20220411215720-9780585627b5 // indirect
	golang.org/x/term v0.0.0-20210927222741-03fcf44c2211 // indirect
	golang.org/x/text v0.3.7 // indirect
	golang.org/x/xerrors v0.0.0-20220411194840-2f41105eb62f // indirect
	gomodules.xyz/jsonpatch/v2 v2.2.0 // indirect
	google.golang.org/appengine v1.6.7 // indirect
	gopkg.in/inf.v0 v0.9.1 // indirect
	gopkg.in/yaml.v2 v2.4.0 // indirect
	gopkg.in/yaml.v3 v3.0.0-20210107192922-496545a6307b // indirect
	gotest.tools v2.2.0+incompatible // indirect
	k8s.io/apiextensions-apiserver v0.23.5 // indirect
	k8s.io/component-base v0.23.5 // indirect
	k8s.io/klog/v2 v2.30.0 // indirect
	k8s.io/kube-openapi v0.0.0-20211115234752-e816edb12b65 // indirect
	sigs.k8s.io/json v0.0.0-20211020170558-c049b76a60c6 // indirect
	sigs.k8s.io/structured-merge-diff/v4 v4.2.1 // indirect
	sigs.k8s.io/yaml v1.3.0 // indirect
)
